{
	"info": {
		"_postman_id": "0e95d982-7dfe-4333-b035-14e3642cde2e",
		"name": "SOVKP",
		"description": "Sistemi za obdelavo velikih količin podatkov - seminar",
		"schema": "https://schema.getpostman.com/json/collection/v2.1.0/collection.json"
	},
	"item": [
		{
			"name": "Ingress API: measurements batch",
			"request": {
				"method": "POST",
				"header": [],
				"body": {
					"mode": "raw",
					"raw": "{\n    \"timestamp\":\"2020-07-28T15:19:00.000+02:00\",\n    \"source_device_uuid\":\"0d7bc661-2b2c-4360-b7c4-1e16448d3cb2\",\n    \"values\":{\n        \"sample_frequency_hz\": 100,\n        \"values\":[10,11,12,13,14,15]\n    }\n}",
					"options": {
						"raw": {
							"language": "json"
						}
					}
				},
				"url": {
					"raw": "{{host}}:8080/batch",
					"host": [
						"{{host}}"
					],
					"port": "8080",
					"path": [
						"batch"
					]
				}
			},
			"response": []
		}
	],
	"protocolProfileBehavior": {}
}